<?xml version="1.0" encoding="utf-8"?>
<!-- Generator: Adobe Illustrator 18.1.1, SVG Export Plug-In . SVG Version: 6.00 Build 0)  -->
<svg version="1.1" id="Layer_1" xmlns="http://www.w3.org/2000/svg" xmlns:xlink="http://www.w3.org/1999/xlink" x="0px" y="0px"
	 viewBox="0 0 202 157.996" style="enable-background:new 0 0 202 157.996;" xml:space="preserve">
<path d="M15.615,18.611c0.779,0,1.546-0.317,2.095-0.871c0.553-0.55,0.87-1.319,0.87-2.098
	c0-0.784-0.316-1.548-0.87-2.099c-0.549-0.555-1.316-0.871-2.095-0.871c-0.779,0-1.546,0.317-2.095,0.871
	c-0.553,0.55-0.87,1.319-0.87,2.099c0,0.78,0.316,1.548,0.87,2.098C14.069,18.295,14.832,18.611,15.615,18.611z"/>
<path d="M25.102,18.611c0.779,0,1.546-0.317,2.095-0.871c0.553-0.55,0.87-1.319,0.87-2.098
	c0-0.78-0.316-1.548-0.87-2.099c-0.549-0.555-1.316-0.871-2.095-0.871c-0.779,0-1.546,0.317-2.095,0.871
	c-0.553,0.55-0.87,1.319-0.87,2.099c0,0.78,0.316,1.548,0.87,2.098C23.556,18.295,24.323,18.611,25.102,18.611z"/>
<path d="M34.589,18.611c0.779,0,1.546-0.317,2.095-0.871c0.553-0.55,0.87-1.319,0.87-2.098
	c0-0.78-0.316-1.548-0.87-2.099c-0.549-0.555-1.317-0.871-2.095-0.871c-0.779,0-1.546,0.317-2.095,0.871
	c-0.553,0.55-0.87,1.319-0.87,2.099c0,0.78,0.316,1.548,0.87,2.098C33.043,18.295,33.81,18.611,34.589,18.611z"/>
<path d="M47.239,18.611h120.172c1.637,0,2.965-1.33,2.965-2.97s-1.327-2.97-2.965-2.97H47.239
	c-1.637,0-2.965,1.33-2.965,2.97S45.601,18.611,47.239,18.611z"/>
<path d="M180.061,18.611h6.325c1.637,0,2.965-1.33,2.965-2.97s-1.327-2.97-2.965-2.97h-6.325
	c-1.637,0-2.965,1.33-2.965,2.97S178.423,18.611,180.061,18.611z"/>
<path d="M186.385,0H15.615C7.005,0,0,7.017,0,15.642v126.713c0,8.625,7.005,15.641,15.615,15.641h170.771
	c8.61,0,15.615-7.017,15.615-15.641V15.642C202,7.017,194.995,0,186.385,0z M15.615,5.94h170.771c5.34,0,9.685,4.352,9.685,9.701
	v9.701H5.929v-9.701C5.929,10.292,10.274,5.94,15.615,5.94z M186.385,152.057H15.615c-5.34,0-9.685-4.352-9.685-9.702V31.283H196.07
	v111.072C196.07,147.704,191.726,152.057,186.385,152.057z"/>
</svg>
