<?xml version="1.0" encoding="iso-8859-1"?>
<!-- Generator: Adobe Illustrator 18.1.1, SVG Export Plug-In . SVG Version: 6.00 Build 0)  -->
<svg version="1.1" id="Layer_1" xmlns="http://www.w3.org/2000/svg" xmlns:xlink="http://www.w3.org/1999/xlink" x="0px" y="0px"
	 viewBox="0 0 96 85.999" style="enable-background:new 0 0 96 85.999;" xml:space="preserve">
<path d="M88.579,0H7.421C3.329,0,0,3.35,0,7.466v48.386c0,4.117,3.329,7.466,7.421,7.466h30.059
	c0.778,0,1.409-0.634,1.409-1.417s-0.631-1.418-1.409-1.418H7.421c-2.538,0-4.603-2.077-4.603-4.631V7.466
	c0-2.553,2.065-4.63,4.603-4.63h81.158c2.538,0,4.603,2.077,4.603,4.63v48.386c0,0.783,0.631,1.418,1.409,1.418
	c0.778,0,1.409-0.635,1.409-1.418V7.466C96,3.35,92.671,0,88.579,0z"/>
<path d="M38.982,49.898H11.929c-0.778,0-1.409,0.635-1.409,1.417c0,0.783,0.631,1.418,1.409,1.418h27.053
	c0.778,0,1.409-0.635,1.409-1.418C40.391,50.533,39.761,49.898,38.982,49.898z"/>
<path d="M28.368,24.099v-6.048c0-2.449-1.981-4.442-4.415-4.442h-9.018c-2.434,0-4.415,1.992-4.415,4.442v6.048
	c0,2.449,1.981,4.442,4.415,4.442h9.018C26.387,28.54,28.368,26.548,28.368,24.099z M13.339,24.099v-1.607h1.597
	c0.778,0,1.409-0.635,1.409-1.418c0-0.782-0.631-1.417-1.409-1.417h-1.597v-1.607c0-0.886,0.716-1.607,1.597-1.607h3.1v9.261h-3.1
	C14.055,25.705,13.339,24.985,13.339,24.099z M23.953,25.705h-3.1v-9.261h3.1c0.881,0,1.597,0.72,1.597,1.607v1.607h-1.597
	c-0.778,0-1.409,0.635-1.409,1.417c0,0.783,0.631,1.418,1.409,1.418h1.597v1.607C25.55,24.985,24.834,25.705,23.953,25.705z"/>
<path d="M10.521,42.244c0,0.783,0.631,1.417,1.409,1.417c0.778,0,1.409-0.634,1.409-1.417V39.22
	c0-0.783-0.631-1.418-1.409-1.418c-0.778,0-1.409,0.635-1.409,1.418V42.244z"/>
<path d="M15.029,39.22v3.024c0,0.783,0.631,1.417,1.409,1.417c0.778,0,1.409-0.634,1.409-1.417V39.22
	c0-0.783-0.631-1.418-1.409-1.418C15.66,37.802,15.029,38.437,15.029,39.22z"/>
<path d="M19.538,39.22v3.024c0,0.783,0.631,1.417,1.409,1.417s1.409-0.634,1.409-1.417V39.22
	c0-0.783-0.631-1.418-1.409-1.418S19.538,38.437,19.538,39.22z"/>
<path d="M24.047,39.22v3.024c0,0.783,0.631,1.417,1.409,1.417c0.778,0,1.409-0.634,1.409-1.417V39.22
	c0-0.783-0.631-1.418-1.409-1.418C24.678,37.802,24.047,38.437,24.047,39.22z"/>
<path d="M32.877,42.244V39.22c0-0.783-0.631-1.418-1.409-1.418c-0.778,0-1.409,0.635-1.409,1.418v3.024
	c0,0.783,0.631,1.417,1.409,1.417C32.246,43.661,32.877,43.027,32.877,42.244z"/>
<path d="M37.386,42.244V39.22c0-0.783-0.631-1.418-1.409-1.418c-0.778,0-1.409,0.635-1.409,1.418v3.024
	c0,0.783,0.631,1.417,1.409,1.417C36.755,43.661,37.386,43.027,37.386,42.244z"/>
<path d="M40.485,37.802c-0.778,0-1.409,0.635-1.409,1.418v3.024c0,0.783,0.631,1.417,1.409,1.417
	c0.778,0,1.409-0.634,1.409-1.417V39.22C41.894,38.437,41.264,37.802,40.485,37.802z"/>
<path d="M46.403,42.244V39.22c0-0.783-0.631-1.418-1.409-1.418c-0.778,0-1.409,0.635-1.409,1.418v3.024
	c0,0.783,0.631,1.417,1.409,1.417C45.772,43.661,46.403,43.027,46.403,42.244z"/>
<path d="M78.059,28.54c4.092,0,7.421-3.349,7.421-7.466c0-4.116-3.329-7.465-7.421-7.465h-9.018
	c-4.092,0-7.421,3.349-7.421,7.465c0,4.117,3.329,7.466,7.421,7.466H78.059z M64.438,21.074c0-2.553,2.065-4.63,4.603-4.63h9.018
	c2.538,0,4.603,2.077,4.603,4.63c0,2.554-2.065,4.631-4.603,4.631h-9.018C66.503,25.705,64.438,23.628,64.438,21.074z"/>
<path d="M66.035,37.802c-13.208,0-23.953,10.811-23.953,24.099c0,13.288,10.745,24.098,23.953,24.098
	c13.208,0,23.953-10.81,23.953-24.098C89.988,48.612,79.243,37.802,66.035,37.802z M66.035,83.164
	c-11.654,0-21.135-9.539-21.135-21.264c0-11.725,9.481-21.264,21.135-21.264c11.654,0,21.135,9.539,21.135,21.264
	C87.17,73.625,77.689,83.164,66.035,83.164z"/>
<path d="M78.565,53.338L61.526,70.48l-8.021-8.07c-0.55-0.553-1.442-0.553-1.993,0
	c-0.55,0.554-0.55,1.451,0,2.005l9.018,9.072c0.275,0.276,0.636,0.415,0.996,0.415c0.361,0,0.721-0.139,0.996-0.415l18.035-18.145
	c0.55-0.554,0.55-1.451,0-2.005C80.008,52.784,79.116,52.784,78.565,53.338z"/>
</svg>
