<?xml version="1.0" encoding="iso-8859-1"?>
<!-- Generator: Adobe Illustrator 18.1.1, SVG Export Plug-In . SVG Version: 6.00 Build 0)  -->
<svg version="1.1" id="Layer_1" xmlns="http://www.w3.org/2000/svg" xmlns:xlink="http://www.w3.org/1999/xlink" x="0px" y="0px"
	 viewBox="0 0 210 134.001" style="enable-background:new 0 0 210 134.001;" xml:space="preserve">
<path style="fill:none;" d="M204.539,0H5.461C2.449,0,0,2.453,0,5.468v100.883c0,3.014,2.449,5.467,5.461,5.467H88.67v17.586H67.018
	c-1.268,0-2.296,1.029-2.296,2.298c0,1.27,1.028,2.299,2.296,2.299h75.964c1.268,0,2.296-1.029,2.296-2.299
	c0-1.269-1.028-2.298-2.296-2.298H121.33v-17.586h83.209c3.011,0,5.461-2.453,5.461-5.467V5.468C210,2.453,207.55,0,204.539,0z
	 M116.739,129.404H93.261v-17.586h23.478V129.404z M205.409,106.351c0,0.472-0.398,0.87-0.87,0.87H5.461
	c-0.471,0-0.87-0.398-0.87-0.87V5.468c0-0.472,0.398-0.871,0.87-0.871h199.078c0.471,0,0.87,0.399,0.87,0.871V106.351z"/>
<path style="fill:none;" d="M198.209,88.521H11.791c-1.268,0-2.296,1.029-2.296,2.298c0,1.269,1.028,2.299,2.296,2.299h186.418
	c1.268,0,2.296-1.029,2.296-2.299C200.504,89.55,199.477,88.521,198.209,88.521z"/>
<path style="fill:none;" d="M75.931,38.448v25.294c0,2.855-0.765,5.061-2.296,6.616c-1.531,1.555-3.66,2.333-6.387,2.333
	c-0.606,0-1.159-0.03-1.659-0.09c-0.5-0.06-1.03-0.158-1.591-0.293l0.318-5.027c0.349,0.09,0.697,0.158,1.046,0.203
	c0.349,0.045,0.72,0.068,1.114,0.068c0.894,0,1.583-0.312,2.068-0.936c0.485-0.624,0.727-1.582,0.727-2.874V38.448H75.931z
	 M75.795,32.564h-6.66v-4.892h6.66V32.564z"/>
<path style="fill:none;" d="M94.15,62.839c-0.243-0.556-0.452-1.142-0.626-1.759c-0.174-0.616-0.299-1.247-0.374-1.893
	c-0.682,1.187-1.58,2.171-2.693,2.953c-1.115,0.781-2.444,1.172-3.99,1.172c-2.576,0-4.561-0.657-5.955-1.972
	c-1.394-1.315-2.091-3.107-2.091-5.377c0-2.389,0.927-4.242,2.784-5.557c1.856-1.315,4.566-1.973,8.127-1.973h3.705v-1.938
	c0-1.172-0.311-2.082-0.932-2.728c-0.621-0.646-1.538-0.969-2.75-0.969c-1.076,0-1.906,0.259-2.488,0.778
	c-0.585,0.518-0.876,1.236-0.876,2.153l-6.41-0.023l-0.023-0.135c-0.106-2.059,0.796-3.836,2.705-5.332s4.417-2.243,7.524-2.243
	c2.94,0,5.326,0.74,7.16,2.22c1.833,1.48,2.75,3.588,2.75,6.323v10.077c0,1.142,0.086,2.217,0.262,3.224
	c0.173,1.007,0.45,2.006,0.829,2.998H94.15z M88.081,58.444c1.167,0,2.205-0.286,3.114-0.857c0.909-0.571,1.523-1.232,1.841-1.984
	v-3.449h-3.705c-1.409,0-2.478,0.349-3.205,1.048c-0.727,0.699-1.091,1.545-1.091,2.536c0,0.812,0.273,1.465,0.818,1.961
	C86.399,58.195,87.142,58.444,88.081,58.444z"/>
<path style="fill:none;" d="M111.825,53.755l0.432,2.254h0.136l0.455-2.254l4.046-15.307h6.933l-8.365,24.392h-6.342l-8.365-24.392
	h6.933L111.825,53.755z"/>
<path style="fill:#A7C1E0;" d="M139.363,62.839c-0.242-0.556-0.452-1.142-0.626-1.759c-0.174-0.616-0.299-1.247-0.374-1.893
	c-0.682,1.187-1.581,2.171-2.693,2.953c-1.115,0.781-2.444,1.172-3.99,1.172c-2.576,0-4.561-0.657-5.955-1.972
	c-1.394-1.315-2.091-3.107-2.091-5.377c0-2.389,0.927-4.242,2.784-5.557c1.856-1.315,4.566-1.973,8.127-1.973h3.705v-1.938
	c0-1.172-0.311-2.082-0.932-2.728c-0.621-0.646-1.538-0.969-2.75-0.969c-1.076,0-1.906,0.259-2.488,0.778
	c-0.585,0.518-0.876,1.236-0.876,2.153l-6.41-0.023l-0.023-0.135c-0.106-2.059,0.795-3.836,2.705-5.332
	c1.909-1.495,4.417-2.243,7.524-2.243c2.94,0,5.326,0.74,7.16,2.22c1.834,1.48,2.75,3.588,2.75,6.323v10.077
	c0,1.142,0.086,2.217,0.262,3.224c0.173,1.007,0.45,2.006,0.829,2.998H139.363z M133.294,58.444c1.167,0,2.205-0.286,3.114-0.857
	c0.909-0.571,1.523-1.232,1.841-1.984v-3.449h-3.705c-1.409,0-2.478,0.349-3.205,1.048c-0.727,0.699-1.091,1.545-1.091,2.536
	c0,0.812,0.273,1.465,0.818,1.961C131.612,58.195,132.355,58.444,133.294,58.444z"/>
</svg>
